@startuml architecture

' Architecture Specification for Blockchain XES log Generator
package "Ubuntu 16.04" {
  node "Docker" <<host>> {
    node "etherscan-io-api" <<container>> as eventLogApi
    package "Apache Spark" {
      node "spark-xes-generator" <<container>> as sparkDriver
      node "spark-master" <<container>> as sparkMaster
      node "spark-worker-1" <<container>> as sparkWorker1
      node "spark-worker-2" <<container>> as sparkWorker2
      node "spark-worker-3" <<container>> as sparkWorker3
      sparkDriver <--> sparkMaster
      sparkMaster <--> sparkWorker1
      sparkMaster <--> sparkWorker2
      sparkMaster <--> sparkWorker3
      sparkWorker1 <--> sparkDriver
      sparkWorker3 <--> sparkDriver
    }
    package "Apache Hadoop" {
      package "slave" {
        node "hadoop-node-manager" <<container>> as nodeManager
        node "hadoop-datanode-1" <<container>> as datanode1
        node "hadoop-datanode-2" <<container>> as datanode2
        node "hadoop-datanode-3" <<container>> as datanode3
      }
      package "master" {
        node "hadoop-namenode" <<container>> as namenode
        node "hadoop-resource-manager" <<container>> as resourceManager
      }
    }
    eventLogApi --> resourceManager
    namenode --> resourceManager
    nodeManager --> resourceManager
    datanode1 --> nodeManager
    datanode2 --> nodeManager
    datanode3 --> nodeManager
    resourceManager --> sparkDriver
    sparkDriver --> resourceManager

    note left of eventLogApi
      1. Scan / query event log
      from selected ethereum block range
    end note

    note left of resourceManager
      2. Upload and store
      event log in CSV format
      within HDFS
    end note

    note left of sparkDriver
      3. Retreive event log
      file (CSV) from HDFS
      and perform XES file
      generation using XESLite API
    end note

    note left of resourceManager
      4. Upload the result
      (XES file) back to
      HDFS
    end note
  }
}

@enduml
